Exploring probability distributions for bivariate temporal granularities with gravitas
…
smart_meter_nsw %>% is.harmony(gran1 = "hour_day", gran2 = "day_week", facet_h = 14)
#> [1] "FALSE"

smart_meter_nsw %>% is.harmony(gran1 = "day_month", gran2 = "hhour_week")
#> [1] "FALSE"

Get all possible harmonies with harmony()

Or, we can find the set of harmonies all at once with the help of function harmony.

smart_meter_nsw  %>% harmony(ugran = "month",
                             filter_out = c("fortnight", "hhour"),
                             filter_in = "wknd_wday")
#> # A tibble: 78 x 4
#>    facet_variable  x_variable facet_levels x_levels
#>    <chr>           <chr>             <int>    <int>
#>  1 hour_day        hhour_hour           24        2
#>  2 day_week        hhour_hour            7        2
#>  3 day_fortnight   hhour_hour           14        2
#>  4 day_month       hhour_hour           31        2
#>  5 week_fortnight  hhour_hour            2        2
#>  6 week_month      hhour_hour            5        2
#>  7 fortnight_month hhour_hour            3        2
#>  8 wknd_wday       hhour_hour            2        2
#>  9 day_week        hhour_day             7       48
#> 10 day_fortnight   hhour_day            14       48
#> # … with 68 more rows
…
