Explore Probability Distributions for Bivariate Temporal Granularities • gravitas
…
 hierarchy_model <- tibble::tibble(
   units = c("index", "ball", "over", "inning", "match"),
   convert_fct = c(1, 6, 20, 2, 1)
 )
 cricket_tsibble %>%
   create_gran(
     "over_inning",
     hierarchy_model
   )
#> # A tsibble: 8,560 x 12 [1]
#>    season match_id batting_team bowling_team inning  over wicket dot_balls
#>     <dbl>    <dbl> <chr>        <chr>         <dbl> <dbl>  <dbl>     <dbl>
#>  1   2008        2 Chennai Sup… Kings XI Pu…      1     1      0         4
#>  2   2008        2 Chennai Sup… Kings XI Pu…      1     2      0         2
#>  3   2008        2 Chennai Sup… Kings XI Pu…      1     3      1         4
#>  4   2008        2 Chennai Sup… Kings XI Pu…      1     4      0         3
#>  5   2008        2 Chennai Sup… Kings XI Pu…      1     5      0         3
#>  6   2008        2 Chennai Sup… Kings XI Pu…      1     6      0         3
#>  7   2008        2 Chennai Sup… Kings XI Pu…      1     7      1         1
#>  8   2008        2 Chennai Sup… Kings XI Pu…      1     8      1         3
#>  9   2008        2 Chennai Sup… Kings XI Pu…      1     9      0         1
#> 10   2008        2 Chennai Sup… Kings XI Pu…      1    10      0         2
#> # … with 8,550 more rows, and 4 more variables: runs_per_over <dbl>,
#> #   run_rate <dbl>, data_index <int>, over_inning <fct>
…
