Exploring probability distributions for cricket
…
There are many interesting questions that can possibly be answered with such a data set. We will explore a few to understand how the package can help answer some of the questions.

Although there is no conventional time element in cricket, we can still represent the data set cricket through a tsibble, where each over, which represents an ordering from past to future, can form the index of the tsibble.

cricket_tsibble <- cricket %>%
  mutate(data_index = row_number()) %>%
  as_tsibble(index = data_index)

cricket_tsibble
#> # A tsibble: 8,560 x 11 [1]
#>    season match_id batting_team bowling_team inning  over wicket dot_balls
#>     <dbl>    <dbl> <chr>        <chr>         <dbl> <dbl>  <dbl>     <dbl>
#>  1   2008        2 Chennai Sup… Kings XI Pu…      1     1      0         4
#>  2   2008        2 Chennai Sup… Kings XI Pu…      1     2      0         2
#>  3   2008        2 Chennai Sup… Kings XI Pu…      1     3      1         4
#>  4   2008        2 Chennai Sup… Kings XI Pu…      1     4      0         3
#>  5   2008        2 Chennai Sup… Kings XI Pu…      1     5      0         3
#>  6   2008        2 Chennai Sup… Kings XI Pu…      1     6      0         3
#>  7   2008        2 Chennai Sup… Kings XI Pu…      1     7      1         1
#>  8   2008        2 Chennai Sup… Kings XI Pu…      1     8      1         3
#>  9   2008        2 Chennai Sup… Kings XI Pu…      1     9      0         1
#> 10   2008        2 Chennai Sup… Kings XI Pu…      1    10      0         2
#> # … with 8,550 more rows, and 3 more variables: runs_per_over <dbl>,
#> #   run_rate <dbl>, data_index <int>
…
