Advice summaries for granularities — print.gran_advice • gravitas
…
#> The chosen granularities are harmonies 
#>  
#> Recommended plots are: violin lv quantile boxplot 
#>  
#> Number of observations are homogenous across facets 
#>  
#> Number of observations are homogenous within facets 
#>  
#> Cross tabulation of granularities : 
#>  
#> # A tibble: 24 x 3
#>    hour_day Weekday Weekend
#>    <fct>      <dbl>   <dbl>
#>  1 0            910     366
#>  2 1            908     366
#>  3 2            909     366
#>  4 3            910     366
#>  5 4            910     366
#>  6 5            910     366
#>  7 6            909     366
#>  8 7            908     366
#>  9 8            908     366
#> 10 9            908     366
#> # … with 14 more rows
…
