Exploring probability distributions for bivariate temporal granularities • gravitas
…
Exploration of large quantities of temporal data across so many different deconstructions of time becomes clumsy without a systematic approach.

This vignette describes the tools in the package gravitas for systematically exploring large quantities of temporal data across different time deconstructions by visualizing the probability distributions using range of graphics in ggplot2.

Analysis of smart meter data

The smart_meter10 data set in the package is a tsibble providing the energy consumption for ten households from customer trials.

smart_meter10 %>% select(customer_id,
                         reading_datetime,
                         general_supply_kwh,
                         everything()
)
#> # A tsibble: 259,235 x 8 [30m] <UTC>
#> # Key:       customer_id [10]
#>    customer_id reading_datetime    general_supply_… event_key
#>    <chr>       <dttm>                         <dbl>     <dbl>
#>  1 10006704    2012-06-01 10:00:00            0.24          0
#>  2 10006704    2012-06-01 10:30:00            0.245         0
#>  3 10006704    2012-06-01 11:00:00            0.206         0
#>  4 10006704    2012-06-01 11:30:00            0.217         0
#>  5 10006704    2012-06-01 12:00:00            0.214         0
#>  6 10006704    2012-06-01 12:30:00            0.23          0
#>  7 10006704    2012-06-01 13:00:00            0.898         0
#>  8 10006704    2012-06-01 13:30:00            0.197         0
#>  9 10006704    2012-06-01 14:00:00            0.255         0
#> 10 10006704    2012-06-01 14:30:00            0.199         0
#> # … with 259,225 more rows, and 4 more variables:
#> #   controlled_load_kwh <dbl>, gross_generation_kwh <dbl>,
#> #   net_generation_kwh <dbl>, other_kwh <dbl>
…
smart_meter10 %>% 
  is_harmony(gran1 = "day_month",
             gran2 = "week_month")
#> [1] "FALSE"

Let us now look at all the harmonies that we can examine. Fortunately, we are left with only 13 out of 30 visualizations. We can also play with the argument facet_h, which represents the maximum number of levels allowed for facet variables, to reduce or increase the number of harmonies.

smart_meter10 %>% harmony(
  ugran = "month",
  filter_out = c("hhour")
)
#> # A tibble: 38 x 4
#>    facet_variable  x_variable facet_levels x_levels
#>    <chr>           <chr>             <int>    <int>
#>  1 day_week        hour_day              7       24
#>  2 day_fortnight   hour_day             14       24
#>  3 day_month       hour_day             31       24
#>  4 week_fortnight  hour_day              2       24
#>  5 week_month      hour_day              5       24
#>  6 fortnight_month hour_day              3       24
#>  7 day_month       hour_week            31      168
#>  8 week_fortnight  hour_week             2      168
#>  9 week_month      hour_week             5      168
#> 10 fortnight_month hour_week             3      168
#> # … with 28 more rows
…
)
#> $harmony
#> [1] "TRUE"
#> 
#> $homogenous
#> # A tibble: 1 x 2
#>   inter_facet intra_facet
#>   <chr>       <chr>      
#> 1 TRUE        TRUE       
#> 
#> $plot_choices
#> [1] "violin"   "lv"       "quantile" "boxplot" 
#> 
#> $gran_obs
#> # A tibble: 24 x 6
#>    hour_day   `1`   `2`   `3`   `4`   `5`
#>    <fct>    <dbl> <dbl> <dbl> <dbl> <dbl>
#>  1 0         2474  2464  2518  2489   857
#>  2 1         2470  2470  2518  2486   854
#>  3 2         2469  2469  2520  2486   855
#>  4 3         2468  2468  2522  2486   856
#>  5 4         2467  2468  2521  2486   856
#>  6 5         2468  2468  2520  2487   856
#>  7 6         2470  2469  2519  2486   855
#>  8 7         2470  2472  2518  2484   854
#>  9 8         2470  2471  2519  2479   854
#> 10 9         2470  2470  2520  2478   856
#> # … with 14 more rows
…
