Exploring probability distributions for bivariate temporal granularities with gravitas • gravitas
…
In this vignette, we describe the tools in the package gravitas for systematically exploring large quantities of temporal data across different time deconstructions by visualizing the probability distributions using range of graphics in ggplot2 by making allowances for the following aspects of time granularities:

Computation

Get set of possible granularities with search_gran

The smart_meter10 data in the package is a tsibble providing the energy consumption for ten households from customer trials.

smart_meter10 %>% select(
  customer_id,
  reading_datetime,
  general_supply_kwh,
  everything()
)
#> # A tsibble: 259,235 x 8 [30m] <UTC>
#> # Key:       customer_id [15]
#>    customer_id reading_datetime    general_supply_… event_key
#>    <chr>       <dttm>                         <dbl>     <dbl>
#>  1 10006704    2012-06-01 10:00:00            0.24          0
#>  2 10006704    2012-06-01 10:30:00            0.245         0
#>  3 10006704    2012-06-01 11:00:00            0.206         0
#>  4 10006704    2012-06-01 11:30:00            0.217         0
#>  5 10006704    2012-06-01 12:00:00            0.214         0
#>  6 10006704    2012-06-01 12:30:00            0.23          0
#>  7 10006704    2012-06-01 13:00:00            0.898         0
#>  8 10006704    2012-06-01 13:30:00            0.197         0
#>  9 10006704    2012-06-01 14:00:00            0.255         0
#> 10 10006704    2012-06-01 14:30:00            0.199         0
#> # … with 259,225 more rows, and 4 more variables:
#> #   controlled_load_kwh <dbl>, gross_generation_kwh <dbl>,
#> #   net_generation_kwh <dbl>, other_kwh <dbl>
…
smart_meter10 %>%
  create_gran("day_fortnight") %>%
  group_by(day_fortnight)
#> # A tsibble: 259,235 x 9 [30m] <UTC>
#> # Key:       customer_id [10]
#> # Groups:    day_fortnight [14]
#>    customer_id reading_datetime    event_key general_supply_…
#>    <chr>       <dttm>                  <dbl>            <dbl>
#>  1 10006704    2012-06-01 10:00:00         0            0.24 
#>  2 10006704    2012-06-01 10:30:00         0            0.245
#>  3 10006704    2012-06-01 11:00:00         0            0.206
#>  4 10006704    2012-06-01 11:30:00         0            0.217
#>  5 10006704    2012-06-01 12:00:00         0            0.214
#>  6 10006704    2012-06-01 12:30:00         0            0.23 
#>  7 10006704    2012-06-01 13:00:00         0            0.898
#>  8 10006704    2012-06-01 13:30:00         0            0.197
#>  9 10006704    2012-06-01 14:00:00         0            0.255
#> 10 10006704    2012-06-01 14:30:00         0            0.199
#> # … with 259,225 more rows, and 5 more variables:
#> #   controlled_load_kwh <dbl>, gross_generation_kwh <dbl>,
#> #   net_generation_kwh <dbl>, other_kwh <dbl>, day_fortnight <fct>
…
